…
              fuzzyjoin::stringdist_full_join(x,y,by = "full_name",
                                              # Largest distance in 10 years = 8
                                              max_dist = 6,
                                              distance_col = "n") %>% 
                group_by(playerId.x) %>%
                slice_min(n) %>%
                ungroup()
            })) %>% 
  unnest(matched_names) %>% 
  # The Giants are a good example because 3 players had different spelling
  filter(teamName == "GWS Giants") %>% 
  arrange(-n)
#> # A tibble: 39 × 7
#>    teamName   season full_name.x      playerId.x  full_name.y      playe…¹     n
#>    <chr>       <dbl> <chr>            <chr>       <chr>              <dbl> <dbl>
#>  1 GWS Giants   2022 harry_himmelberg CD_I993107  harrison_himmel…   12462     4
#>  2 GWS Giants   2022 matt_de_boer     CD_I271015  matthew_de_boer    11746     3
#>  3 GWS Giants   2022 callum_m_brown   CD_I1014038 callum_brown       12910     2
#>  4 GWS Giants   2022 isaac_cumming    CD_I1001396 isaac_cumming      12629     0
#>  5 GWS Giants   2022 jarrod_brander   CD_I1002300 jarrod_brander     12646     0
#>  6 GWS Giants   2022 jacob_wehr       CD_I1004530 jacob_wehr         12991     0
#>  7 GWS Giants   2022 sam_taylor       CD_I1005247 sam_taylor         12644     0
#>  8 GWS Giants   2022 james_peatling   CD_I1006013 james_peatling     12934     0
#>  9 GWS Giants   2022 xavier_ohalloran CD_I1006135 xavier_ohalloran   12821     0
#> 10 GWS Giants   2022 bobby_hill       CD_I1006148 bobby_hill         12744     0
#> # … with 29 more rows, and abbreviated variable name ¹​playerId.y
```
…
